{
    "EquipPage_basic": [
        {
            "name": "말쿠트",
            "textId": "1",
            "nameLocalizedKR": "역사의 층 지정사서 책장",
            "passiveDescs": [],
            "onlycard": [],
            "range": "close",
            "rarity": "Common"
        },
        {
            "name": "예소드",
            "textId": "2",
            "nameLocalizedKR": "기술과학의 층 지정사서 책장",
            "passiveDescs": [],
            "onlycard": [],
            "range": "close",
            "rarity": "Common"
        },
        {
            "name": "호드",
            "textId": "3",
            "nameLocalizedKR": "문학의 층 지정사서 책장",
            "passiveDescs": [],
            "onlycard": [],
            "range": "close",
            "rarity": "Common"
        },
        {
            "name": "네짜흐",
            "textId": "4",
            "nameLocalizedKR": "예술의 층 지정사서 책장",
            "passiveDescs": [],
            "onlycard": [],
            "range": "close",
            "rarity": "Common"
        },
        {
            "name": "티페리트",
            "textId": "5",
            "nameLocalizedKR": "자연과학의 층 지정사서 책장",
            "passiveDescs": [],
            "onlycard": [],
            "range": "close",
            "rarity": "Common"
        },
        {
            "name": "게부라",
            "textId": "6",
            "nameLocalizedKR": "언어의 층 지정사서 책장",
            "passiveDescs": [],
            "onlycard": [],
            "range": "close",
            "rarity": "Common"
        },
        {
            "name": "헤세드",
            "textId": "7",
            "nameLocalizedKR": "사회학의 층 지정사서 책장",
            "passiveDescs": [],
            "onlycard": [],
            "range": "close",
            "rarity": "Common"
        },
        {
            "name": "비나",
            "textId": "8",
            "nameLocalizedKR": "철학의 층 지정사서 책장",
            "passiveDescs": [],
            "onlycard": [],
            "range": "close",
            "rarity": "Unique"
        },
        {
            "name": "호크마",
            "textId": "9",
            "nameLocalizedKR": "종교의 층 지정사서 책장",
            "passiveDescs": [],
            "onlycard": [],
            "range": "close",
            "rarity": "Common"
        },
        {
            "name": "롤랑",
            "textId": "10",
            "nameLocalizedKR": "총류의 층 지정사서 책장",
            "passiveDescs": [],
            "onlycard": [],
            "range": "close",
            "rarity": "Common"
        },
        {
            "name": "말쿠트 사서복",
            "textId": "11",
            "nameLocalizedKR": "역사의 층 보조사서 책장",
            "passiveDescs": [],
            "onlycard": [],
            "range": "close",
            "rarity": "Common"
        },
        {
            "name": "예소드 사서복",
            "textId": "12",
            "nameLocalizedKR": "기술과학의 층 보조사서 책장",
            "passiveDescs": [],
            "onlycard": [],
            "range": "close",
            "rarity": "Common"
        },
        {
            "name": "호드 사서복",
            "textId": "13",
            "nameLocalizedKR": "문학의 층 보조사서 책장",
            "passiveDescs": [],
            "onlycard": [],
            "range": "close",
            "rarity": "Common"
        },
        {
            "name": "네짜흐 사서복",
            "textId": "14",
            "nameLocalizedKR": "예술의 층 보조사서 책장",
            "passiveDescs": [],
            "onlycard": [],
            "range": "close",
            "rarity": "Common"
        },
        {
            "name": "티페리트 사서복",
            "textId": "15",
            "nameLocalizedKR": "자연과학의 층 보조사서 책장",
            "passiveDescs": [],
            "onlycard": [],
            "range": "close",
            "rarity": "Common"
        },
        {
            "name": "게부라 사서복",
            "textId": "16",
            "nameLocalizedKR": "언어의 층 보조사서 책장",
            "passiveDescs": [],
            "onlycard": [],
            "range": "close",
            "rarity": "Common"
        },
        {
            "name": "헤세드 사서복",
            "textId": "17",
            "nameLocalizedKR": "사회학의 층 보조사서 책장",
            "passiveDescs": [],
            "onlycard": [],
            "range": "close",
            "rarity": "Common"
        },
        {
            "name": "비나 사서복",
            "textId": "18",
            "nameLocalizedKR": "철학의 층 보조사서 책장",
            "passiveDescs": [],
            "onlycard": [],
            "range": "close",
            "rarity": "Common"
        },
        {
            "name": "호크마 사서복",
            "textId": "19",
            "nameLocalizedKR": "종교의 층 보조사서 책장",
            "passiveDescs": [],
            "onlycard": [],
            "range": "close",
            "rarity": "Common"
        },
        {
            "name": "케테르 사서복",
            "textId": "20",
            "nameLocalizedKR": "총류의 층 보조사서 책장",
            "passiveDescs": [],
            "onlycard": [],
            "range": "close",
            "rarity": "Common"
        },
        {
            "name": "기본 책",
            "textId": "1",
            "nameLocalizedKR": "역사의 층 지정사서 책장",
            "passiveDescs": [],
            "onlycard": [],
            "range": "close",
            "rarity": "Common"
        }
    ],
    "EquipPage_ch1": [
        {
            "name": "레니",
            "textId": "200001",
            "nameLocalizedKR": "레니의 책장",
            "passiveDescs": [],
            "onlycard": [],
            "range": "close",
            "rarity": "Common"
        },
        {
            "name": "망치",
            "textId": "200002",
            "nameLocalizedKR": "망치의 책장",
            "passiveDescs": [],
            "onlycard": [],
            "range": "close",
            "rarity": "Common"
        },
        {
            "name": "피트",
            "textId": "200003",
            "nameLocalizedKR": "피트의 책장",
            "passiveDescs": [],
            "onlycard": [],
            "range": "close",
            "rarity": "Common"
        },
        {
            "name": "핀",
            "textId": "200004",
            "nameLocalizedKR": "핀의 책장",
            "passiveDescs": [
                "다른 아군이 사망할 때 마다 힘 1을 얻음",
                "합 패배시 다음 주사위 위력 +1"
            ],
            "onlycard": [],
            "range": "close",
            "rarity": "Uncommon"
        },
        {
            "name": "에리",
            "textId": "200005",
            "nameLocalizedKR": "에리의 책장",
            "passiveDescs": [
                "회피 주사위가 50%의 확률로 강화됨",
                "속도가 더 낮은 적을 공격할 때 피해량+1"
            ],
            "onlycard": [],
            "range": "close",
            "rarity": "Uncommon"
        },
        {
            "name": "윤",
            "textId": "200006",
            "nameLocalizedKR": "윤의 책장",
            "passiveDescs": [
                "수비 주사위가 25%의 확률로 강화됨",
                "수비 주사위 위력 +1"
            ],
            "onlycard": [],
            "range": "close",
            "rarity": "Rare"
        },
        {
            "name": "모",
            "textId": "200007",
            "nameLocalizedKR": "모의 책장",
            "passiveDescs": [
                "공격 적중시 25%의 확률로 마비 1 부여",
                "합 승리시 25%의 확률로 마비 1 부여"
            ],
            "onlycard": [],
            "range": "close",
            "rarity": "Rare"
        },
        {
            "name": "콘스타",
            "textId": "200008",
            "nameLocalizedKR": "콘스타의 책장",
            "passiveDescs": [
                "공격 적중시 25%의 확률로 마비 1 부여",
                "합 승리시 25%의 확률로 마비 1 부여"
            ],
            "onlycard": [],
            "range": "close",
            "rarity": "Uncommon"
        },
        {
            "name": "아놀드",
            "textId": "200009",
            "nameLocalizedKR": "아놀드의 책장",
            "passiveDescs": [
                "공격 적중시 25%의 확률로 마비 1 부여",
                "합 승리시 25%의 확률로 마비 1 부여"
            ],
            "onlycard": [],
            "range": "close",
            "rarity": "Uncommon"
        },
        {
            "name": "맥컬린",
            "textId": "200010",
            "nameLocalizedKR": "맥컬린의 책장",
            "passiveDescs": [
                "적 처치시 힘 1을 얻음",
                "공격 적중시 10%의 확률로 힘 1을 얻음"
            ],
            "onlycard": [],
            "range": "close",
            "rarity": "Uncommon"
        },
        {
            "name": "태인",
            "textId": "200011",
            "nameLocalizedKR": "태인의 책장",
            "passiveDescs": [
                "적 처치시 힘 1을 얻음",
                "공격 적중시 10%의 확률로 힘 1을 얻음"
            ],
            "onlycard": [],
            "range": "close",
            "rarity": "Rare"
        },
        {
            "name": "나오키",
            "textId": "200012",
            "nameLocalizedKR": "나오키의 책장",
            "passiveDescs": [
                "적 처치시 힘 1을 얻음",
                "공격 적중시 10%의 확률로 힘 1을 얻음"
            ],
            "onlycard": [],
            "range": "close",
            "rarity": "Uncommon"
        },
        {
            "name": "윤 해결사1",
            "textId": "201001",
            "nameLocalizedKR": "윤 사무소 해결사의 책장1",
            "passiveDescs": [
                "참격 피해량 +1",
                "참격 주사위 위력 +1"
            ],
            "onlycard": [],
            "range": "close",
            "rarity": "Common"
        }
    ],
    "EquipPage_ch2": [
        {
            "name": "잭",
            "textId": "210001",
            "nameLocalizedKR": "잭의 책장",
            "passiveDescs": [
                "막 시작시 체력 2 회복",
                "공격 적중시 20%의 확률로 출혈 1 부여"
            ],
            "onlycard": [],
            "range": "close",
            "rarity": "Uncommon"
        },
        {
            "name": "피에르",
            "textId": "210002",
            "nameLocalizedKR": "피에르의 책장",
            "passiveDescs": [
                "적 처치시 체력 25% 회복",
                "공격 적중시 20%의 확률로 출혈 1 부여"
            ],
            "onlycard": [],
            "range": "close",
            "rarity": "Rare"
        },
        {
            "name": "마스",
            "textId": "210003",
            "nameLocalizedKR": "마스의 책장",
            "passiveDescs": [
                "속도가 더 낮은 적을 공격할 때 흐트러짐 피해량+1",
                "속도가 더 낮은 적을 공격할 때 흐트러짐 피해량+1"
            ],
            "onlycard": [],
            "range": "close",
            "rarity": "Unique"
        },
        {
            "name": "루루",
            "textId": "210006",
            "nameLocalizedKR": "루루의 책장",
            "passiveDescs": [
                "공격 적중시 50%의 확률로 화상 1 부여",
                "화상 상태인 적을 공격할 때 위력 +1"
            ],
            "onlycard": [],
            "range": "close",
            "rarity": "Rare"
        },
        {
            "name": "갈고리 사무소1",
            "textId": "21",
            "nameLocalizedKR": "갈고리 사무소 해결사의 책장1",
            "passiveDescs": [
                "적 처치시 힘 1을 얻음",
                "공격 적중시 10%의 확률로 힘 1을 얻음"
            ],
            "onlycard": [],
            "range": "close",
            "rarity": "Common"
        },
        {
            "name": "갈고리 사무소2",
            "textId": "22",
            "nameLocalizedKR": "갈고리 사무소 해결사의 책장2",
            "passiveDescs": [
                "적 처치시 힘 1을 얻음",
                "공격 적중시 10%의 확률로 힘 1을 얻음"
            ],
            "onlycard": [],
            "range": "close",
            "rarity": "Common"
        },
        {
            "name": "뒷골목 도축업자1",
            "textId": "23",
            "nameLocalizedKR": "뒷골목 도축업자의 책장1",
            "passiveDescs": [
                "출혈 상태인 적을 공격할 때 피해량 +1",
                "출혈 상태인 적을 공격할 때 체력 1 회복"
            ],
            "onlycard": [],
            "range": "close",
            "rarity": "Common"
        },
        {
            "name": "뒷골목 도축업자2",
            "textId": "24",
            "nameLocalizedKR": "뒷골목 도축업자의 책장2",
            "passiveDescs": [
                "출혈 상태인 적을 공격할 때 피해량 +1",
                "출혈 상태인 적을 공격할 때 체력 1 회복"
            ],
            "onlycard": [],
            "range": "close",
            "rarity": "Common"
        },
        {
            "name": "루루친구1",
            "textId": "211005",
            "nameLocalizedKR": "루루친구의 책장1",
            "passiveDescs": [
                "관통 피해량+1",
                "관통 주사위 위력 +1"
            ],
            "onlycard": [],
            "range": "close",
            "rarity": "Common"
        },
        {
            "name": "루루친구3",
            "textId": "211007",
            "nameLocalizedKR": "루루친구의 책장3",
            "passiveDescs": [
                "참격 피해량+1",
                "참격 주사위 위력 +1"
            ],
            "onlycard": [],
            "range": "close",
            "rarity": "Uncommon"
        }
    ],
    "EquipPage_ch3": [
        {
            "name": "산",
            "textId": "220001",
            "nameLocalizedKR": "산의 책장",
            "passiveDescs": [
                "합 승리시 25%의 확률로 다음 주사위 강화",
                "타격 주사위 피해량+1"
            ],
            "onlycard": [],
            "range": "close",
            "rarity": "Uncommon"
        },
        {
            "name": "줄리아",
            "textId": "220002",
            "nameLocalizedKR": "줄리아의 책장",
            "passiveDescs": [
                "참격 피해량 +1",
                "수비시 50%의 확률로 다음 주사위 강화"
            ],
            "onlycard": [],
            "range": "close",
            "rarity": "Uncommon"
        },
        {
            "name": "이사도라",
            "textId": "220003",
            "nameLocalizedKR": "이사도라의 책장",
            "passiveDescs": [
                "참격 흐트러짐 피해량 +1",
                "관통 흐트러짐 피해량 +1"
            ],
            "onlycard": [],
            "range": "close",
            "rarity": "Uncommon"
        },
        {
            "name": "월터",
            "textId": "220004",
            "nameLocalizedKR": "월터의 책장",
            "passiveDescs": [
                "방어 주사위 위력 +1",
                "회피 주사위 위력 +2"
            ],
            "onlycard": [],
            "range": "close",
            "rarity": "Rare"
        },
        {
            "name": "미카",
            "textId": "220005",
            "nameLocalizedKR": "미카의 책장",
            "passiveDescs": [
                "책장을 1장 버릴 때 마다 hp 3 회복",
                "책장을 버리면 막 종료시 인내 1을 얻음"
            ],
            "onlycard": [],
            "range": "close",
            "rarity": "Uncommon"
        },
        {
            "name": "올가",
            "textId": "220006",
            "nameLocalizedKR": "올가의 책장",
            "passiveDescs": [
                "막 종료시 손에 책장이 없으면 빛을 1 회복하고 책장을 1장 뽑음",
                "손에 책장이 없는 동안 위력 +1"
            ],
            "onlycard": [],
            "range": "close",
            "rarity": "Unique"
        },
        {
            "name": "레인",
            "textId": "220007",
            "nameLocalizedKR": "레인의 책장",
            "passiveDescs": [
                "막 종료시 손에 있는 책장이 3장 이하면 힘 1을 얻음",
                "막 종료시 무작위 책장을 버리고 빛 1 회복"
            ],
            "onlycard": [],
            "range": "close",
            "rarity": "Uncommon"
        },
        {
            "name": "경미",
            "textId": "220008",
            "nameLocalizedKR": "경미의 책장",
            "passiveDescs": [
                "막 시작시 이전 막에서 책장을 버렸다면 책장을 하나 뽑음",
                "한 막 동안 책장을 사용하지 않으면 막 종료시 빛 2 회복"
            ],
            "onlycard": [],
            "range": "close",
            "rarity": "Rare"
        },
        {
            "name": "디노",
            "textId": "220009",
            "nameLocalizedKR": "디노의 책장",
            "passiveDescs": [
                "합 승리시 대상에게 피해 1",
                "합 승리시 다음 공격 주사위의 위력 +1"
            ],
            "onlycard": [],
            "range": "close",
            "rarity": "Uncommon"
        },
        {
            "name": "줄루",
            "textId": "220010",
            "nameLocalizedKR": "줄루의 책장",
            "passiveDescs": [
                "막 시작시 25%의 확률로 빛 1 회복",
                "책장 사용시 공격 주사위 1개가 50%의 확률로 강화됨"
            ],
            "onlycard": [],
            "range": "close",
            "rarity": "Uncommon"
        },
        {
            "name": "츠바이1",
            "textId": "25",
            "nameLocalizedKR": "츠바이 해결사의 책장",
            "passiveDescs": [
                "합 승리시 체력 1 회복",
                "회피 주사위 위력 +1"
            ],
            "onlycard": [],
            "range": "close",
            "rarity": "Common"
        },
        {
            "name": "버림받은 개 조직원1",
            "textId": "39",
            "nameLocalizedKR": "버림받은 개 조직원의 책장",
            "passiveDescs": [
                "타격 피해량 +1",
                "타격 주사위 위력 +1"
            ],
            "onlycard": [],
            "range": "close",
            "rarity": "Common"
        },
        {
            "name": "8급-사원해결사1",
            "textId": "40",
            "nameLocalizedKR": "8급 해결사의 책장1",
            "passiveDescs": [
                "참격 흐트러짐 피해량 +1",
                "참격 주사위 위력 +1"
            ],
            "onlycard": [],
            "range": "close",
            "rarity": "Common"
        },
        {
            "name": "8급 해결사2",
            "textId": "41",
            "nameLocalizedKR": "8급 해결사의 책장2",
            "passiveDescs": [
                "참격 흐트러짐 피해량 +1",
                "참격 주사위 위력 +1"
            ],
            "onlycard": [],
            "range": "close",
            "rarity": "Common"
        },
        {
            "name": "8급 해결사3",
            "textId": "42",
            "nameLocalizedKR": "8급 해결사의 책장3",
            "passiveDescs": [
                "관통 흐트러짐 피해량 +1",
                "관통 주사위 위력 +1"
            ],
            "onlycard": [],
            "range": "close",
            "rarity": "Uncommon"
        },
        {
            "name": "7급 해결사1",
            "textId": "43",
            "nameLocalizedKR": "7급 해결사의 책장1",
            "passiveDescs": [
                "참격 흐트러짐 피해량 +1",
                "참격 주사위 위력 +1"
            ],
            "onlycard": [],
            "range": "close",
            "rarity": "Uncommon"
        },
        {
            "name": "7급 해결사2",
            "textId": "44",
            "nameLocalizedKR": "7급 해결사의 책장2",
            "passiveDescs": [
                "참격 흐트러짐 피해량 +1",
                "참격 주사위 위력 +1"
            ],
            "onlycard": [],
            "range": "close",
            "rarity": "Uncommon"
        },
        {
            "name": "7급 해결사3",
            "textId": "45",
            "nameLocalizedKR": "7급 해결사의 책장3",
            "passiveDescs": [
                "관통 흐트러짐 피해량 +1",
                "관통 주사위 위력 +1"
            ],
            "onlycard": [],
            "range": "close",
            "rarity": "Rare"
        },
        {
            "name": "도끼파1",
            "textId": "46",
            "nameLocalizedKR": "도끼파의 책장1",
            "passiveDescs": [
                "타격 흐트러짐 피해량 +1",
                "타격 주사위 위력 +1"
            ],
            "onlycard": [],
            "range": "close",
            "rarity": "Uncommon"
        },
        {
            "name": "도끼파2",
            "textId": "47",
            "nameLocalizedKR": "도끼파의 책장2",
            "passiveDescs": [
                "참격 피해량 +2, 관통 피해량 -1",
                "참격 주사위 위력 +1"
            ],
            "onlycard": [],
            "range": "close",
            "rarity": "Rare"
        }
    ],
    "EquipPage_ch4": [
        {
            "name": "사육제",
            "textId": "230001",
            "nameLocalizedKR": "사육제의 책장",
            "passiveDescs": [],
            "onlycard": [],
            "range": "close",
            "rarity": "Uncommon"
        },
        {
            "name": "리웨이",
            "textId": "230004",
            "nameLocalizedKR": "리웨이의 책장",
            "passiveDescs": [],
            "onlycard": [],
            "range": "hybrid",
            "rarity": "Rare"
        },
        {
            "name": "스테판",
            "textId": "230005",
            "nameLocalizedKR": "스테판의 책장",
            "passiveDescs": [],
            "onlycard": [],
            "range": "hybrid",
            "rarity": "Uncommon"
        },
        {
            "name": "타마키",
            "textId": "230006",
            "nameLocalizedKR": "타마키의 책장",
            "passiveDescs": [],
            "onlycard": [],
            "range": "hybrid",
            "rarity": "Uncommon"
        },
        {
            "name": "살바도르",
            "textId": "230007",
            "nameLocalizedKR": "살바도르의 책장",
            "passiveDescs": [],
            "onlycard": [],
            "range": "close",
            "rarity": "Unique"
        },
        {
            "name": "유나",
            "textId": "230008",
            "nameLocalizedKR": "유나의 책장",
            "passiveDescs": [],
            "onlycard": [],
            "range": "close",
            "rarity": "Uncommon"
        },
        {
            "name": "알록",
            "textId": "230010",
            "nameLocalizedKR": "알록의 책장",
            "passiveDescs": [],
            "onlycard": [],
            "range": "close",
            "rarity": "Rare"
        },
        {
            "name": "달록",
            "textId": "230011",
            "nameLocalizedKR": "달록의 책장",
            "passiveDescs": [],
            "onlycard": [],
            "range": "close",
            "rarity": "Uncommon"
        },
        {
            "name": "보노",
            "textId": "230012",
            "nameLocalizedKR": "보노의 책장",
            "passiveDescs": [],
            "onlycard": [],
            "range": "close",
            "rarity": "Uncommon"
        },
        {
            "name": "사요",
            "textId": "230018",
            "nameLocalizedKR": "사요의 책장",
            "passiveDescs": [],
            "onlycard": [],
            "range": "close",
            "rarity": "Rare"
        },
        {
            "name": "양",
            "textId": "230019",
            "nameLocalizedKR": "양의 책장",
            "passiveDescs": [],
            "onlycard": [],
            "range": "close",
            "rarity": "Uncommon"
        },
        {
            "name": "긴",
            "textId": "230020",
            "nameLocalizedKR": "긴의 책장",
            "passiveDescs": [],
            "onlycard": [],
            "range": "close",
            "rarity": "Uncommon"
        },
        {
            "name": "흑운회 조직원",
            "textId": "231001",
            "nameLocalizedKR": "흑운회 조직원의 책장",
            "passiveDescs": [],
            "onlycard": [],
            "range": "close",
            "rarity": "Common"
        },
        {
            "name": "미야오",
            "textId": "230021",
            "nameLocalizedKR": "미야오의 책장",
            "passiveDescs": [],
            "onlycard": [],
            "range": "close",
            "rarity": "Rare"
        },
        {
            "name": "무무",
            "textId": "230022",
            "nameLocalizedKR": "무무의 책장",
            "passiveDescs": [],
            "onlycard": [],
            "range": "close",
            "rarity": "Uncommon"
        },
        {
            "name": "오잉크",
            "textId": "230023",
            "nameLocalizedKR": "오잉크의 책장",
            "passiveDescs": [],
            "onlycard": [],
            "range": "close",
            "rarity": "Uncommon"
        },
        {
            "name": "오스카",
            "textId": "230024",
            "nameLocalizedKR": "오스카의 책장",
            "passiveDescs": [],
            "onlycard": [],
            "range": "close",
            "rarity": "Unique"
        },
        {
            "name": "파멜리",
            "textId": "230025",
            "nameLocalizedKR": "파멜리의 책장",
            "passiveDescs": [],
            "onlycard": [],
            "range": "close",
            "rarity": "Uncommon"
        },
        {
            "name": "파멜라",
            "textId": "230026",
            "nameLocalizedKR": "파멜라의 책장",
            "passiveDescs": [],
            "onlycard": [],
            "range": "close",
            "rarity": "Uncommon"
        },
        {
            "name": "지칸",
            "textId": "232001",
            "nameLocalizedKR": "지칸의 책장",
            "passiveDescs": [],
            "onlycard": [],
            "range": "close",
            "rarity": "Rare"
        },
        {
            "name": "녹슨 사슬 조직원",
            "textId": "232002",
            "nameLocalizedKR": "녹슨 사슬 조직원의 책장",
            "passiveDescs": [],
            "onlycard": [],
            "range": "close",
            "rarity": "Uncommon"
        },
        {
            "name": "공방 소속 해결사",
            "textId": "233001",
            "nameLocalizedKR": "공방 소속 해결사의 책장",
            "passiveDescs": [],
            "onlycard": [],
            "range": "close",
            "rarity": "Uncommon"
        },
        {
            "name": "하나후다",
            "textId": "234001",
            "nameLocalizedKR": "하나후다의 책장",
            "passiveDescs": [],
            "onlycard": [],
            "range": "close",
            "rarity": "Unique"
        },
        {
            "name": "정사무소 해결사",
            "textId": "234002",
            "nameLocalizedKR": "정사무소 해결사의 책장",
            "passiveDescs": [],
            "onlycard": [],
            "range": "close",
            "rarity": "Rare"
        }
    ],
    "EquipPage_ch5": [
        {
            "name": "유진",
            "textId": "240001",
            "nameLocalizedKR": "유진의 책장",
            "passiveDescs": [],
            "onlycard": [
                "501001"
            ],
            "range": "close",
            "rarity": "Unique"
        },
        {
            "name": "발렌틴",
            "textId": "240002",
            "nameLocalizedKR": "발렌틴의 책장",
            "passiveDescs": [],
            "onlycard": [],
            "range": "close",
            "rarity": "Rare"
        },
        {
            "name": "텐마",
            "textId": "240003",
            "nameLocalizedKR": "텐마의 책장",
            "passiveDescs": [],
            "onlycard": [],
            "range": "close",
            "rarity": "Rare"
        },
        {
            "name": "빠른 인형",
            "textId": "240004",
            "nameLocalizedKR": "인형 1의 책장",
            "passiveDescs": [],
            "onlycard": [],
            "range": "close",
            "rarity": "Uncommon"
        },
        {
            "name": "무거운 인형",
            "textId": "240005",
            "nameLocalizedKR": "인형 2의 책장",
            "passiveDescs": [],
            "onlycard": [],
            "range": "close",
            "rarity": "Rare"
        },
        {
            "name": "에마",
            "textId": "240007",
            "nameLocalizedKR": "에마의 책장",
            "passiveDescs": [],
            "onlycard": [],
            "range": "close",
            "rarity": "Rare"
        },
        {
            "name": "노아(착용불가)",
            "textId": "240008",
            "nameLocalizedKR": "노아의 책장",
            "passiveDescs": [],
            "onlycard": [],
            "range": "close",
            "rarity": "Common"
        },
        {
            "name": "안톤",
            "textId": "240014",
            "nameLocalizedKR": "안톤의 책장",
            "passiveDescs": [],
            "onlycard": [
                "504002"
            ],
            "range": "close",
            "rarity": "Uncommon"
        },
        {
            "name": "라일라",
            "textId": "240016",
            "nameLocalizedKR": "라일라의 책장",
            "passiveDescs": [],
            "onlycard": [
                "504002"
            ],
            "range": "close",
            "rarity": "Uncommon"
        },
        {
            "name": "발레리",
            "textId": "240015",
            "nameLocalizedKR": "발레리의 책장",
            "passiveDescs": [],
            "onlycard": [
                "504002"
            ],
            "range": "close",
            "rarity": "Uncommon"
        },
        {
            "name": "검지 수행자",
            "textId": "240018",
            "nameLocalizedKR": "검지 수행자의 책장",
            "passiveDescs": [],
            "onlycard": [],
            "range": "close",
            "rarity": "Uncommon"
        },
        {
            "name": "로즈",
            "textId": "240019",
            "nameLocalizedKR": "로즈의 책장",
            "passiveDescs": [],
            "onlycard": [
                "506001"
            ],
            "range": "close",
            "rarity": "Unique"
        },
        {
            "name": "센",
            "textId": "240021",
            "nameLocalizedKR": "센의 책장",
            "passiveDescs": [],
            "onlycard": [
                "506001"
            ],
            "range": "close",
            "rarity": "Uncommon"
        },
        {
            "name": "레스티",
            "textId": "240020",
            "nameLocalizedKR": "레스티의 책장",
            "passiveDescs": [],
            "onlycard": [
                "506001"
            ],
            "range": "close",
            "rarity": "Uncommon"
        },
        {
            "name": "워프 정리 요원",
            "textId": "240022",
            "nameLocalizedKR": "Warp 정리 요원의 책장",
            "passiveDescs": [],
            "onlycard": [],
            "range": "close",
            "rarity": "Common"
        },
        {
            "name": "왕",
            "textId": "240023",
            "nameLocalizedKR": "왕의 책장",
            "passiveDescs": [],
            "onlycard": [],
            "range": "close",
            "rarity": "Rare"
        },
        {
            "name": "진",
            "textId": "240024",
            "nameLocalizedKR": "진의 책장",
            "passiveDescs": [],
            "onlycard": [],
            "range": "close",
            "rarity": "Rare"
        },
        {
            "name": "미",
            "textId": "240025",
            "nameLocalizedKR": "미의 책장",
            "passiveDescs": [],
            "onlycard": [],
            "range": "close",
            "rarity": "Rare"
        },
        {
            "name": "웃는 얼굴들",
            "textId": "240026",
            "nameLocalizedKR": "웃는 얼굴들의 책장",
            "passiveDescs": [],
            "onlycard": [],
            "range": "close",
            "rarity": "Common"
        },
        {
            "name": "불안정한 우는아이의 책장",
            "textId": "240027",
            "nameLocalizedKR": "불안정한 우는 아이의 책장",
            "passiveDescs": [],
            "onlycard": [
                "508010"
            ],
            "range": "close",
            "rarity": "Unique"
        },
        {
            "name": "시 협회 2과 해결사",
            "textId": "241001",
            "nameLocalizedKR": "시 협회의 책장",
            "passiveDescs": [],
            "onlycard": [],
            "range": "close",
            "rarity": "Common"
        },
        {
            "name": "청소부 잡몹",
            "textId": "241017",
            "nameLocalizedKR": "청소부의 책장",
            "passiveDescs": [],
            "onlycard": [
                "504002"
            ],
            "range": "close",
            "rarity": "Common"
        },
        {
            "name": "단테",
            "textId": "243001",
            "nameLocalizedKR": "단테의 책장",
            "passiveDescs": [],
            "onlycard": [],
            "range": "close",
            "rarity": "Rare"
        },
        {
            "name": "세븐 협회 해결사",
            "textId": "243002",
            "nameLocalizedKR": "세븐 협회 조직원의 책장",
            "passiveDescs": [],
            "onlycard": [],
            "range": "close",
            "rarity": "Uncommon"
        },
        {
            "name": "김삿갓",
            "textId": "243003",
            "nameLocalizedKR": "김삿갓의 책장",
            "passiveDescs": [],
            "onlycard": [
                "512003"
            ],
            "range": "close",
            "rarity": "Unique"
        },
        {
            "name": "검계 조직원",
            "textId": "243004",
            "nameLocalizedKR": "검계 조직원의 책장",
            "passiveDescs": [],
            "onlycard": [],
            "range": "close",
            "rarity": "Uncommon"
        },
        {
            "name": "1급 해결사 동환",
            "textId": "243005",
            "nameLocalizedKR": "1급 해결사 동환의 책장",
            "passiveDescs": [],
            "onlycard": [],
            "range": "close",
            "rarity": "Unique"
        }
    ],
    "EquipPage_ch6": [
        {
            "name": "리우 2과 해결사",
            "textId": "250001",
            "nameLocalizedKR": "리우 협회의 책장",
            "passiveDescs": [],
            "onlycard": [],
            "range": "close",
            "rarity": "Uncommon"
        },
        {
            "name": "로웰",
            "textId": "250002",
            "nameLocalizedKR": "로웰의 책장",
            "passiveDescs": [],
            "onlycard": [
                "601008"
            ],
            "range": "close",
            "rarity": "Unique"
        },
        {
            "name": "세실",
            "textId": "250003",
            "nameLocalizedKR": "세실의 책장",
            "passiveDescs": [],
            "onlycard": [
                "601009"
            ],
            "range": "close",
            "rarity": "Rare"
        },
        {
            "name": "메이",
            "textId": "250004",
            "nameLocalizedKR": "메이의 책장",
            "passiveDescs": [],
            "onlycard": [
                "601009"
            ],
            "range": "close",
            "rarity": "Rare"
        },
        {
            "name": "엄지 조직원",
            "textId": "250005",
            "nameLocalizedKR": "엄지 조직원의 책장",
            "passiveDescs": [],
            "onlycard": [
                "602001",
                "602002",
                "602003",
                "602004",
                "602006"
            ],
            "range": "hybrid",
            "rarity": "Uncommon"
        },
        {
            "name": "칼로",
            "textId": "250006",
            "nameLocalizedKR": "칼로의 책장",
            "passiveDescs": [],
            "onlycard": [
                "602001",
                "602002",
                "602003",
                "602004",
                "602006",
                "602009"
            ],
            "range": "hybrid",
            "rarity": "Unique"
        },
        {
            "name": "보리스",
            "textId": "250009",
            "nameLocalizedKR": "보리스의 책장",
            "passiveDescs": [],
            "onlycard": [
                "602010"
            ],
            "range": "close",
            "rarity": "Rare"
        },
        {
            "name": "카트리엘",
            "textId": "250008",
            "nameLocalizedKR": "카트리엘의 책장",
            "passiveDescs": [],
            "onlycard": [
                "602001",
                "602002",
                "602003",
                "602004",
                "602006",
                "602009"
            ],
            "range": "hybrid",
            "rarity": "Rare"
        },
        {
            "name": "데니스",
            "textId": "250007",
            "nameLocalizedKR": "데니스의 책장",
            "passiveDescs": [],
            "onlycard": [
                "602001",
                "602002",
                "602003",
                "602004",
                "602006",
                "602009"
            ],
            "range": "hybrid",
            "rarity": "Rare"
        },
        {
            "name": "네모",
            "textId": "250010",
            "nameLocalizedKR": "네모의 책장",
            "passiveDescs": [],
            "onlycard": [
                "603001"
            ],
            "range": "close",
            "rarity": "Unique"
        },
        {
            "name": "마르티나",
            "textId": "250011",
            "nameLocalizedKR": "마르티나의 책장",
            "passiveDescs": [],
            "onlycard": [
                "603008"
            ],
            "range": "close",
            "rarity": "Rare"
        },
        {
            "name": "바다",
            "textId": "250012",
            "nameLocalizedKR": "바다의 책장",
            "passiveDescs": [],
            "onlycard": [
                "603004"
            ],
            "range": "close",
            "rarity": "Rare"
        },
        {
            "name": "톱니 신도",
            "textId": "250014",
            "nameLocalizedKR": "톱니 신도의 책장",
            "passiveDescs": [],
            "onlycard": [],
            "range": "close",
            "rarity": "Common"
        },
        {
            "name": "에스더",
            "textId": "250015",
            "nameLocalizedKR": "에스더의 책장",
            "passiveDescs": [],
            "onlycard": [
                "605002"
            ],
            "range": "close",
            "rarity": "Unique"
        },
        {
            "name": "휴버트",
            "textId": "250016",
            "nameLocalizedKR": "휴버트의 책장",
            "passiveDescs": [],
            "onlycard": [
                "605003"
            ],
            "range": "close",
            "rarity": "Unique"
        },
        {
            "name": "글로리아",
            "textId": "250017",
            "nameLocalizedKR": "글로리아의 책장",
            "passiveDescs": [],
            "onlycard": [
                "605001"
            ],
            "range": "close",
            "rarity": "Unique"
        },
        {
            "name": "춘",
            "textId": "250018",
            "nameLocalizedKR": "춘의 책장",
            "passiveDescs": [],
            "onlycard": [
                "606002"
            ],
            "range": "close",
            "rarity": "Rare"
        },
        {
            "name": "리우 1과 해결사",
            "textId": "250019",
            "nameLocalizedKR": "리우 1과 협회원의 책장",
            "passiveDescs": [],
            "onlycard": [],
            "range": "close",
            "rarity": "Uncommon"
        },
        {
            "name": "붉은안개의 책장",
            "textId": "250022",
            "nameLocalizedKR": "붉은안개의 책장",
            "passiveDescs": [],
            "onlycard": [
                "607003",
                "607004",
                "607005",
                "607006",
                "607007"
            ],
            "range": "close",
            "rarity": "Unique"
        },
        {
            "name": "니콜라이",
            "textId": "250032",
            "nameLocalizedKR": "니콜라이의 책장",
            "passiveDescs": [],
            "onlycard": [
                "608004",
                "608009"
            ],
            "range": "close",
            "rarity": "Unique"
        },
        {
            "name": "묘",
            "textId": "250030",
            "nameLocalizedKR": "묘의 책장",
            "passiveDescs": [],
            "onlycard": [
                "608017"
            ],
            "range": "hybrid",
            "rarity": "Unique"
        },
        {
            "name": "막심",
            "textId": "250028",
            "nameLocalizedKR": "막심의 책장",
            "passiveDescs": [],
            "onlycard": [
                "608003",
                "608006"
            ],
            "range": "close",
            "rarity": "Unique"
        },
        {
            "name": "루돌프",
            "textId": "250026",
            "nameLocalizedKR": "루돌프의 책장",
            "passiveDescs": [],
            "onlycard": [
                "608002",
                "608005"
            ],
            "range": "close",
            "rarity": "Unique"
        },
        {
            "name": "보라눈물",
            "textId": "250034",
            "nameLocalizedKR": "보라눈물의 책장",
            "passiveDescs": [],
            "onlycard": [
                "609013"
            ],
            "range": "close",
            "rarity": "Unique"
        },
        {
            "name": "샤오",
            "textId": "250041",
            "nameLocalizedKR": "샤오의 책장",
            "passiveDescs": [],
            "onlycard": [
                "606001",
                "610006"
            ],
            "range": "close",
            "rarity": "Unique"
        },
        {
            "name": "미리스",
            "textId": "250040",
            "nameLocalizedKR": "미리스의 책장",
            "passiveDescs": [],
            "onlycard": [
                "606002"
            ],
            "range": "close",
            "rarity": "Rare"
        },
        {
            "name": "얀",
            "textId": "250051",
            "nameLocalizedKR": "enlxmfflsdis의 책장",
            "passiveDescs": [],
            "onlycard": [
                "611001",
                "611002",
                "611003"
            ],
            "range": "close",
            "rarity": "Unique"
        },
        {
            "name": "토끼팀",
            "textId": "250025",
            "nameLocalizedKR": "토끼팀의 책장",
            "passiveDescs": [],
            "onlycard": [],
            "range": "hybrid",
            "rarity": "Uncommon"
        },
        {
            "name": "코뿔소팀",
            "textId": "250024",
            "nameLocalizedKR": "코뿔소팀의 책장",
            "passiveDescs": [],
            "onlycard": [
                "608006"
            ],
            "range": "close",
            "rarity": "Uncommon"
        },
        {
            "name": "순록팀",
            "textId": "250023",
            "nameLocalizedKR": "순록팀의 책장",
            "passiveDescs": [],
            "onlycard": [
                "608005"
            ],
            "range": "close",
            "rarity": "Uncommon"
        },
        {
            "name": "알란",
            "textId": "252001",
            "nameLocalizedKR": "알란의 책장",
            "passiveDescs": [],
            "onlycard": [
                "612006"
            ],
            "range": "close",
            "rarity": "Unique"
        },
        {
            "name": "밤의 송곳 조직원",
            "textId": "252002",
            "nameLocalizedKR": "밤의 송곳 조직원의 책장",
            "passiveDescs": [],
            "onlycard": [],
            "range": "close",
            "rarity": "Uncommon"
        },
        {
            "name": "우제트",
            "textId": "253001",
            "nameLocalizedKR": "우제트의 책장",
            "passiveDescs": [],
            "onlycard": [
                "613006"
            ],
            "range": "close",
            "rarity": "Rare"
        },
        {
            "name": "이리나",
            "textId": "254001",
            "nameLocalizedKR": "이리나의 책장",
            "passiveDescs": [],
            "onlycard": [
                "614004"
            ],
            "range": "close",
            "rarity": "Unique"
        },
        {
            "name": "미래생명 보험사",
            "textId": "254002",
            "nameLocalizedKR": "미래생명 보험사의 책장",
            "passiveDescs": [],
            "onlycard": [],
            "range": "close",
            "rarity": "Uncommon"
        },
        {
            "name": "야에",
            "textId": "255001",
            "nameLocalizedKR": "야에의 책장",
            "passiveDescs": [],
            "onlycard": [
                "615006"
            ],
            "range": "close",
            "rarity": "Unique"
        },
        {
            "name": "이파리 공방 해결사",
            "textId": "255002",
            "nameLocalizedKR": "이파리 공방 해결사의 책장",
            "passiveDescs": [],
            "onlycard": [],
            "range": "close",
            "rarity": "Uncommon"
        },
        {
            "name": "베이야드 네임드",
            "textId": "256001",
            "nameLocalizedKR": "바야르의 책장",
            "passiveDescs": [],
            "onlycard": [
                "616006"
            ],
            "range": "close",
            "rarity": "Unique"
        },
        {
            "name": "베이야드 잡몹",
            "textId": "256002",
            "nameLocalizedKR": "베이야드 해결사의 책장",
            "passiveDescs": [],
            "onlycard": [],
            "range": "close",
            "rarity": "Uncommon"
        }
    ],
    "EquipPage_ch7": [
        {
            "name": "하나 해결사",
            "textId": "260001",
            "nameLocalizedKR": "하나 협회의 책장",
            "passiveDescs": [],
            "onlycard": [],
            "range": "close",
            "rarity": "Rare"
        },
        {
            "name": "미리내",
            "textId": "260002",
            "nameLocalizedKR": "미리내의 책장",
            "passiveDescs": [],
            "onlycard": [
                "701001"
            ],
            "range": "close",
            "rarity": "Unique"
        },
        {
            "name": "해롤드",
            "textId": "260003",
            "nameLocalizedKR": "해롤드의 책장",
            "passiveDescs": [],
            "onlycard": [
                "701001"
            ],
            "range": "close",
            "rarity": "Unique"
        },
        {
            "name": "올리비에",
            "textId": "260004",
            "nameLocalizedKR": "올리비에의 책장",
            "passiveDescs": [],
            "onlycard": [
                "701001"
            ],
            "range": "close",
            "rarity": "Unique"
        }
    ],
    "EquipPage_creature": [],
    "EquipPage_creature_final": [],
    "EquipPage_creature_final_binah": [],
    "EquipPage_creature_final_chesed": [],
    "EquipPage_creature_final_gebura": [],
    "EquipPage_creature_final_hod": [],
    "EquipPage_creature_final_hokma": [],
    "EquipPage_creature_final_keter": [],
    "EquipPage_creature_final_netzach": [],
    "EquipPage_creature_final_tiphereth": [],
    "EquipPage_creature_gebura": [],
    "EquipPage_creature_hokma": [],
    "EquipPage_enemy_ch6_R": [],
    "EquipPage_enemy_ch7_BandFinal": [],
    "EquipPage_enemy_ch7_Bremen": [],
    "EquipPage_enemy_ch7_Eileen": [],
    "EquipPage_enemy_ch7_Elena": [],
    "EquipPage_enemy_ch7_Greta": [],
    "EquipPage_enemy_ch7_Jaeheon": [],
    "EquipPage_enemy_ch7_Oswald": [],
    "EquipPage_enemy_ch7_Philip": [],
    "EquipPage_enemy_ch7_Pluto": []
}